2 연구의 목적에 따라 원하는 결과로부터 시작하기 | 연구 목적에 맞게 배우는 R
…
설치가 성공적으로 완료되었다면 다음과 같이 해당 패키지를 메모리에 올려야 한다.

library(readxl)

이제 자료를 읽을 준비가 되었다. 읽는 명령어는 간단하다.

dc <- read_excel("data//mydata.xlsx")

read_excel은 readxl 패키지에 있는 것으로서 엑셀 자료를 읽는 명령어이다. 자료가 현재 폴더의 하위 폴더인 data에 저장되어 있기 때문에 “data//”를 이용하여 폴더를 지정하였다. 윈도우에서 하위 폴더는 “/”이지만 특수 문자로 처리해야 하기 때문에 “//”를 사용한다.

읽은 자료는 “dc <-”를 이용하여 dc로 저장하였다. dc는 데이터프레임으로 엑셀 자료와 비슷한 형태의 성격을 지닌다. 자료의 형태를 살펴보기 위해서는 다음과 같이 dc를 치면 된다.

dc

## # A tibble: 100 x 5
##    student grade gender  area income
##      <dbl> <dbl>  <dbl> <dbl>  <dbl>
##  1       1    34      0     1      2
##  2       2    51      0     1      3
##  3       3    18      0     1      1
##  4       4    94      1     1      5
##  5       5    31      0     1      2
##  6       6    74      0     1      4
##  7       7    30      0     1      2
##  8       8    24      1     1      1
##  9       9     6      1     1      2
## 10      10    83      0     1      4
## # ... with 90 more rows
…
